EESchema Schematic File Version 4
EELAYER 30 0
EELAYER END
$Descr A4 11693 8268
encoding utf-8
Sheet 1 1
Title ""
Date ""
Rev ""
Comp ""
Comment1 ""
Comment2 ""
Comment3 ""
Comment4 ""
$EndDescr
$Comp
L 3615_KicadLibrary:Arduino_Nano_v3.x A1
U 1 1 60BB7FAE
P 4300 4500
F 0 "A1" H 4800 3500 50  0000 C CNN
F 1 "Arduino_Nano_v3.x" H 5100 3600 50  0000 C CNN
F 2 "3615_footprints:Arduino_Nano" H 4450 3550 50  0001 L CNN
F 3 "http://www.mouser.com/pdfdocs/Gravitech_Arduino_Nano3_0.pdf" H 4300 3500 50  0001 C CNN
	1    4300 4500
	1    0    0    -1  
$EndComp
$Comp
L Device:CP C1
U 1 1 60BBAC50
P 1700 4050
F 0 "C1" H 1818 4096 50  0000 L CNN
F 1 "CP" H 1818 4005 50  0000 L CNN
F 2 "Capacitor_THT:CP_Radial_D4.0mm_P2.00mm" H 1738 3900 50  0001 C CNN
F 3 "~" H 1700 4050 50  0001 C CNN
	1    1700 4050
	1    0    0    -1  
$EndComp
$Comp
L Device:R R1
U 1 1 60BBB052
P 2100 3900
F 0 "R1" V 1893 3900 50  0000 C CNN
F 1 "R" V 1984 3900 50  0000 C CNN
F 2 "Resistor_THT:R_Axial_DIN0207_L6.3mm_D2.5mm_P2.54mm_Vertical" V 2030 3900 50  0001 C CNN
F 3 "~" H 2100 3900 50  0001 C CNN
	1    2100 3900
	0    1    1    0   
$EndComp
$Comp
L 3615_KicadLibrary:Conn_01x02 J2
U 1 1 60BBB5A9
P 4850 1900
F 0 "J2" H 4930 1892 50  0000 L CNN
F 1 "Conn_01x02" H 4930 1801 50  0000 L CNN
F 2 "Connector_PinHeader_2.54mm:PinHeader_1x02_P2.54mm_Vertical" H 4850 1900 50  0001 C CNN
F 3 "" H 4850 1900 50  0001 C CNN
	1    4850 1900
	1    0    0    -1  
$EndComp
$Comp
L 3615_KicadLibrary:Conn_01x04 J4
U 1 1 60BBBD4A
P 1350 2850
F 0 "J4" H 1430 2842 50  0000 L CNN
F 1 "Conn_01x04" H 1430 2751 50  0000 L CNN
F 2 "Connector_PinHeader_2.54mm:PinHeader_1x04_P2.54mm_Vertical" H 1350 2850 50  0001 C CNN
F 3 "" H 1350 2850 50  0001 C CNN
	1    1350 2850
	1    0    0    -1  
$EndComp
$Comp
L 3615_KicadLibrary:Conn_01x04 J6
U 1 1 60BBC497
P 6100 2950
F 0 "J6" V 6064 2662 50  0000 R CNN
F 1 "Conn_01x04" V 5973 2662 50  0000 R CNN
F 2 "Connector_PinHeader_2.54mm:PinHeader_1x04_P2.54mm_Vertical" H 6100 2950 50  0001 C CNN
F 3 "" H 6100 2950 50  0001 C CNN
	1    6100 2950
	-1   0    0    1   
$EndComp
Text Notes 5650 2800 0    50   ~ 0
JOYSTICK
$Comp
L power:+5V #PWR0101
U 1 1 60BBDEBD
P 6300 3050
F 0 "#PWR0101" H 6300 2900 50  0001 C CNN
F 1 "+5V" H 6315 3223 50  0000 C CNN
F 2 "" H 6300 3050 50  0001 C CNN
F 3 "" H 6300 3050 50  0001 C CNN
	1    6300 3050
	0    1    1    0   
$EndComp
$Comp
L power:GND #PWR0102
U 1 1 60BBEA63
P 6600 2950
F 0 "#PWR0102" H 6600 2700 50  0001 C CNN
F 1 "GND" H 6605 2777 50  0000 C CNN
F 2 "" H 6600 2950 50  0001 C CNN
F 3 "" H 6600 2950 50  0001 C CNN
	1    6600 2950
	0    -1   -1   0   
$EndComp
Wire Wire Line
	6600 2950 6300 2950
Text GLabel 6300 2850 2    50   Input ~ 0
JOY_LF
Text GLabel 6300 2750 2    50   Input ~ 0
JOY_UD
$Comp
L Device:CP C2
U 1 1 60BC8F40
P 1700 4700
F 0 "C2" H 1818 4746 50  0000 L CNN
F 1 "CP" H 1818 4655 50  0000 L CNN
F 2 "Capacitor_THT:CP_Radial_D4.0mm_P2.00mm" H 1738 4550 50  0001 C CNN
F 3 "~" H 1700 4700 50  0001 C CNN
	1    1700 4700
	1    0    0    -1  
$EndComp
$Comp
L Device:CP C3
U 1 1 60BC94D7
P 1700 5350
F 0 "C3" H 1818 5396 50  0000 L CNN
F 1 "CP" H 1818 5305 50  0000 L CNN
F 2 "Capacitor_THT:CP_Radial_D4.0mm_P2.00mm" H 1738 5200 50  0001 C CNN
F 3 "~" H 1700 5350 50  0001 C CNN
	1    1700 5350
	1    0    0    -1  
$EndComp
$Comp
L Device:CP C4
U 1 1 60BC9EE3
P 1700 6000
F 0 "C4" H 1818 6046 50  0000 L CNN
F 1 "CP" H 1818 5955 50  0000 L CNN
F 2 "Capacitor_THT:CP_Radial_D4.0mm_P2.00mm" H 1738 5850 50  0001 C CNN
F 3 "~" H 1700 6000 50  0001 C CNN
	1    1700 6000
	1    0    0    -1  
$EndComp
$Comp
L Device:CP C5
U 1 1 60BCA406
P 1700 6700
F 0 "C5" H 1818 6746 50  0000 L CNN
F 1 "CP" H 1818 6655 50  0000 L CNN
F 2 "Capacitor_THT:CP_Radial_D4.0mm_P2.00mm" H 1738 6550 50  0001 C CNN
F 3 "~" H 1700 6700 50  0001 C CNN
	1    1700 6700
	1    0    0    -1  
$EndComp
$Comp
L Device:R R2
U 1 1 60BCAB7D
P 2100 4550
F 0 "R2" V 1893 4550 50  0000 C CNN
F 1 "R" V 1984 4550 50  0000 C CNN
F 2 "Resistor_THT:R_Axial_DIN0207_L6.3mm_D2.5mm_P2.54mm_Vertical" V 2030 4550 50  0001 C CNN
F 3 "~" H 2100 4550 50  0001 C CNN
	1    2100 4550
	0    1    1    0   
$EndComp
$Comp
L Device:R R3
U 1 1 60BCAF1E
P 2100 5200
F 0 "R3" V 1893 5200 50  0000 C CNN
F 1 "R" V 1984 5200 50  0000 C CNN
F 2 "Resistor_THT:R_Axial_DIN0207_L6.3mm_D2.5mm_P2.54mm_Vertical" V 2030 5200 50  0001 C CNN
F 3 "~" H 2100 5200 50  0001 C CNN
	1    2100 5200
	0    1    1    0   
$EndComp
$Comp
L Device:R R4
U 1 1 60BCB233
P 2100 5850
F 0 "R4" V 1893 5850 50  0000 C CNN
F 1 "R" V 1984 5850 50  0000 C CNN
F 2 "Resistor_THT:R_Axial_DIN0207_L6.3mm_D2.5mm_P2.54mm_Vertical" V 2030 5850 50  0001 C CNN
F 3 "~" H 2100 5850 50  0001 C CNN
	1    2100 5850
	0    1    1    0   
$EndComp
$Comp
L Device:R R5
U 1 1 60BCB4E6
P 2100 6550
F 0 "R5" V 1893 6550 50  0000 C CNN
F 1 "R" V 1984 6550 50  0000 C CNN
F 2 "Resistor_THT:R_Axial_DIN0207_L6.3mm_D2.5mm_P2.54mm_Vertical" V 2030 6550 50  0001 C CNN
F 3 "~" H 2100 6550 50  0001 C CNN
	1    2100 6550
	0    1    1    0   
$EndComp
Wire Wire Line
	1950 3900 1700 3900
Wire Wire Line
	1950 4550 1700 4550
Wire Wire Line
	1950 5200 1700 5200
Wire Wire Line
	1950 5850 1700 5850
Wire Wire Line
	1950 6550 1700 6550
$Comp
L 3615_KicadLibrary:Conn_01x04 J5
U 1 1 60BDF086
P 2250 2950
F 0 "J5" H 2330 2942 50  0000 L CNN
F 1 "Conn_01x04" H 2330 2851 50  0000 L CNN
F 2 "Connector_PinHeader_2.54mm:PinHeader_1x04_P2.54mm_Vertical" H 2250 2950 50  0001 C CNN
F 3 "" H 2250 2950 50  0001 C CNN
	1    2250 2950
	-1   0    0    1   
$EndComp
Text Notes 1300 2550 0    50   ~ 0
CONNECTEUR CARTE CONTROLEUR
Text GLabel 2450 2950 2    50   Input ~ 0
UD_CTRL2
Text GLabel 2450 3050 2    50   Input ~ 0
LR_CTRL2
Text GLabel 1150 2750 0    50   Input ~ 0
LR_CTRL1
Text GLabel 1150 2850 0    50   Input ~ 0
UD_CTRL1
Text GLabel 1150 2950 0    50   Input ~ 0
CENTER
NoConn ~ 2450 2750
$Comp
L power:GND #PWR0103
U 1 1 60BEF7AC
P 2450 2850
F 0 "#PWR0103" H 2450 2600 50  0001 C CNN
F 1 "GND" H 2455 2677 50  0000 C CNN
F 2 "" H 2450 2850 50  0001 C CNN
F 3 "" H 2450 2850 50  0001 C CNN
	1    2450 2850
	0    -1   -1   0   
$EndComp
NoConn ~ 1150 3050
Text GLabel 1700 3900 0    50   Input ~ 0
LR_CTRL1
Text GLabel 1700 4550 0    50   Input ~ 0
LR_CTRL2
Text GLabel 1700 5200 0    50   Input ~ 0
UD_CTRL1
Text GLabel 1700 5850 0    50   Input ~ 0
UD_CTRL2
Text GLabel 1700 6550 0    50   Input ~ 0
CENTER
$Comp
L power:GND #PWR0104
U 1 1 60BF45A6
P 1700 4200
F 0 "#PWR0104" H 1700 3950 50  0001 C CNN
F 1 "GND" H 1705 4027 50  0000 C CNN
F 2 "" H 1700 4200 50  0001 C CNN
F 3 "" H 1700 4200 50  0001 C CNN
	1    1700 4200
	1    0    0    -1  
$EndComp
$Comp
L power:GND #PWR0105
U 1 1 60BF6F41
P 1700 4850
F 0 "#PWR0105" H 1700 4600 50  0001 C CNN
F 1 "GND" H 1705 4677 50  0000 C CNN
F 2 "" H 1700 4850 50  0001 C CNN
F 3 "" H 1700 4850 50  0001 C CNN
	1    1700 4850
	1    0    0    -1  
$EndComp
$Comp
L power:GND #PWR0106
U 1 1 60BFD44B
P 1700 5500
F 0 "#PWR0106" H 1700 5250 50  0001 C CNN
F 1 "GND" H 1705 5327 50  0000 C CNN
F 2 "" H 1700 5500 50  0001 C CNN
F 3 "" H 1700 5500 50  0001 C CNN
	1    1700 5500
	1    0    0    -1  
$EndComp
$Comp
L power:GND #PWR0107
U 1 1 60BFD82A
P 1700 6150
F 0 "#PWR0107" H 1700 5900 50  0001 C CNN
F 1 "GND" H 1705 5977 50  0000 C CNN
F 2 "" H 1700 6150 50  0001 C CNN
F 3 "" H 1700 6150 50  0001 C CNN
	1    1700 6150
	1    0    0    -1  
$EndComp
$Comp
L power:GND #PWR0108
U 1 1 60BFDC7A
P 1700 6850
F 0 "#PWR0108" H 1700 6600 50  0001 C CNN
F 1 "GND" H 1705 6677 50  0000 C CNN
F 2 "" H 1700 6850 50  0001 C CNN
F 3 "" H 1700 6850 50  0001 C CNN
	1    1700 6850
	1    0    0    -1  
$EndComp
Wire Wire Line
	2250 4550 2250 3900
Wire Wire Line
	2250 5850 2250 5200
Text GLabel 2250 6550 2    50   Input ~ 0
D9
Text GLabel 3800 4800 0    50   Input ~ 0
D9
Text GLabel 2250 5200 2    50   Input ~ 0
D10
Text GLabel 2250 3900 2    50   Input ~ 0
D11
Text GLabel 3800 4900 0    50   Input ~ 0
D10
Text GLabel 3800 5000 0    50   Input ~ 0
D11
$Comp
L power:GND #PWR0109
U 1 1 60C061B5
P 4300 5500
F 0 "#PWR0109" H 4300 5250 50  0001 C CNN
F 1 "GND" H 4305 5327 50  0000 C CNN
F 2 "" H 4300 5500 50  0001 C CNN
F 3 "" H 4300 5500 50  0001 C CNN
	1    4300 5500
	1    0    0    -1  
$EndComp
$Comp
L power:GND #PWR0110
U 1 1 60C0723F
P 4400 5500
F 0 "#PWR0110" H 4400 5250 50  0001 C CNN
F 1 "GND" H 4405 5327 50  0000 C CNN
F 2 "" H 4400 5500 50  0001 C CNN
F 3 "" H 4400 5500 50  0001 C CNN
	1    4400 5500
	1    0    0    -1  
$EndComp
NoConn ~ 4800 3900
NoConn ~ 4800 4000
NoConn ~ 4800 4300
Text Notes 1300 3750 0    50   ~ 0
CIRCUIT RC
Text GLabel 4800 4500 2    50   Input ~ 0
JOY_UD
Text GLabel 4800 4600 2    50   Input ~ 0
JOY_LF
Text Notes 4450 1750 0    50   ~ 0
ALIM EXTERNE
$Comp
L power:+5V #PWR0111
U 1 1 60C2AF8A
P 4600 1900
F 0 "#PWR0111" H 4600 1750 50  0001 C CNN
F 1 "+5V" V 4615 2028 50  0000 L CNN
F 2 "" H 4600 1900 50  0001 C CNN
F 3 "" H 4600 1900 50  0001 C CNN
	1    4600 1900
	0    -1   -1   0   
$EndComp
Wire Wire Line
	4650 1900 4600 1900
$Comp
L power:GND #PWR0112
U 1 1 60C2B934
P 4600 2000
F 0 "#PWR0112" H 4600 1750 50  0001 C CNN
F 1 "GND" V 4605 1872 50  0000 R CNN
F 2 "" H 4600 2000 50  0001 C CNN
F 3 "" H 4600 2000 50  0001 C CNN
	1    4600 2000
	0    1    1    0   
$EndComp
Wire Wire Line
	4650 2000 4600 2000
NoConn ~ 4800 4700
NoConn ~ 4800 4800
NoConn ~ 4800 5100
NoConn ~ 4800 5200
NoConn ~ 3800 5200
NoConn ~ 3800 5100
NoConn ~ 3800 4700
NoConn ~ 3800 4600
NoConn ~ 3800 4500
NoConn ~ 3800 4400
NoConn ~ 3800 4300
NoConn ~ 3800 4200
NoConn ~ 3800 4100
$Comp
L power:+5V #PWR0113
U 1 1 60C32352
P 4500 3500
F 0 "#PWR0113" H 4500 3350 50  0001 C CNN
F 1 "+5V" H 4515 3673 50  0000 C CNN
F 2 "" H 4500 3500 50  0001 C CNN
F 3 "" H 4500 3500 50  0001 C CNN
	1    4500 3500
	1    0    0    -1  
$EndComp
Text Notes 4550 2300 0    50   ~ 0
VERS ESP
$Comp
L 3615_KicadLibrary:Conn_01x04 J3
U 1 1 60C35189
P 4850 2550
F 0 "J3" H 4930 2542 50  0000 L CNN
F 1 "Conn_01x04" H 4930 2451 50  0000 L CNN
F 2 "Connector_PinHeader_2.54mm:PinHeader_1x04_P2.54mm_Vertical" H 4850 2550 50  0001 C CNN
F 3 "" H 4850 2550 50  0001 C CNN
	1    4850 2550
	1    0    0    -1  
$EndComp
$Comp
L power:+5V #PWR0114
U 1 1 60C35CBE
P 4650 2450
F 0 "#PWR0114" H 4650 2300 50  0001 C CNN
F 1 "+5V" V 4665 2578 50  0000 L CNN
F 2 "" H 4650 2450 50  0001 C CNN
F 3 "" H 4650 2450 50  0001 C CNN
	1    4650 2450
	0    -1   -1   0   
$EndComp
$Comp
L power:GND #PWR0115
U 1 1 60C36167
P 4650 2550
F 0 "#PWR0115" H 4650 2300 50  0001 C CNN
F 1 "GND" V 4655 2422 50  0000 R CNN
F 2 "" H 4650 2550 50  0001 C CNN
F 3 "" H 4650 2550 50  0001 C CNN
	1    4650 2550
	0    1    1    0   
$EndComp
Text GLabel 4650 2650 0    50   Input ~ 0
RX
Text GLabel 4650 2750 0    50   Input ~ 0
TX
Text GLabel 3800 3900 0    50   Input ~ 0
RX
Text GLabel 3800 4000 0    50   Input ~ 0
TX
NoConn ~ 4200 3500
NoConn ~ 4400 3500
Text Notes 2650 1050 0    50   ~ 0
VERS DISTANCE
$Comp
L 3615_KicadLibrary:Conn_01x04 J1
U 1 1 60C3D077
P 3100 1300
F 0 "J1" H 3180 1292 50  0000 L CNN
F 1 "Conn_01x04" H 3180 1201 50  0000 L CNN
F 2 "Connector_PinHeader_2.54mm:PinHeader_1x04_P2.54mm_Vertical" H 3100 1300 50  0001 C CNN
F 3 "" H 3100 1300 50  0001 C CNN
	1    3100 1300
	1    0    0    -1  
$EndComp
$Comp
L power:+5V #PWR0116
U 1 1 60C3D07D
P 2900 1200
F 0 "#PWR0116" H 2900 1050 50  0001 C CNN
F 1 "+5V" V 2915 1328 50  0000 L CNN
F 2 "" H 2900 1200 50  0001 C CNN
F 3 "" H 2900 1200 50  0001 C CNN
	1    2900 1200
	0    -1   -1   0   
$EndComp
$Comp
L power:GND #PWR0117
U 1 1 60C3D083
P 2900 1300
F 0 "#PWR0117" H 2900 1050 50  0001 C CNN
F 1 "GND" V 2905 1172 50  0000 R CNN
F 2 "" H 2900 1300 50  0001 C CNN
F 3 "" H 2900 1300 50  0001 C CNN
	1    2900 1300
	0    1    1    0   
$EndComp
Text GLabel 2900 1400 0    50   Input ~ 0
SDA
Text GLabel 2900 1500 0    50   Input ~ 0
SCL
Text GLabel 4800 4900 2    50   Input ~ 0
SDA
Text GLabel 4800 5000 2    50   Input ~ 0
SCL
$EndSCHEMATC
