%!PS-Adobe-3.0
%%Creator: PCBNEW
%%CreationDate: Sat Jun  5 18:31:28 2021
%%Title: /mnt/942da942-d554-4f2f-8d63-d271d7ef0f14/SeafileYuno/Seafile_Fablab/Projets/CrunchMakerCamp_2021/unimotion_crunchmakercamp_2021/kicad/unimotion_inside/gerber/unimotion_inside-PTH-drl_map.ps
%%Pages: 1
%%PageOrder: Ascend
%%BoundingBox: 0 0 596 842
%%DocumentMedia: A4 595 842 0 () ()
%%Orientation: Landscape
%%EndComments
%%BeginProlog
/line { newpath moveto lineto stroke } bind def
/cir0 { newpath 0 360 arc stroke } bind def
/cir1 { newpath 0 360 arc gsave fill grestore stroke } bind def
/cir2 { newpath 0 360 arc gsave fill grestore stroke } bind def
/arc0 { newpath arc stroke } bind def
/arc1 { newpath 4 index 4 index moveto arc closepath gsave fill
    grestore stroke } bind def
/arc2 { newpath 4 index 4 index moveto arc closepath gsave fill
    grestore stroke } bind def
/poly0 { stroke } bind def
/poly1 { closepath gsave fill grestore stroke } bind def
/poly2 { closepath gsave fill grestore stroke } bind def
/rect0 { rectstroke } bind def
/rect1 { rectfill } bind def
/rect2 { rectfill } bind def
/linemode0 { 0 setlinecap 0 setlinejoin 0 setlinewidth } bind def
/linemode1 { 1 setlinecap 1 setlinejoin } bind def
/dashedline { [200] 100 setdash } bind def
/solidline { [] 0 setdash } bind def
/phantomshow { moveto
    /KicadFont findfont 0.000001 scalefont setfont
    show } bind def
/textshow { gsave
    findfont exch scalefont setfont concat 1 scale 0 0 moveto show
    } bind def
/reencodefont {
  findfont dup length dict begin
  { 1 index /FID ne
    { def }
    { pop pop } ifelse
  } forall
  /Encoding ISOLatin1Encoding def
  currentdict
  end } bind def
/KicadFont /Helvetica reencodefont definefont pop
/KicadFont-Bold /Helvetica-Bold reencodefont definefont pop
/KicadFont-Oblique /Helvetica-Oblique reencodefont definefont pop
/KicadFont-BoldOblique /Helvetica-BoldOblique reencodefont definefont pop
%%EndProlog
%%Page: 1 1
%%BeginPageSetup
gsave
0.0072 0.0072 scale
linemode1
82680 0 translate 90 rotate
94.3096 setlinewidth
%%EndPageSetup
78.7396 setlinewidth
newpath
45124.4 66189.5 moveto
45421.4 65892.4 lineto
stroke
newpath
45421.4 66189.5 moveto
45124.4 65892.4 lineto
stroke
newpath
45313 74677.3 moveto
45610.1 74380.3 lineto
stroke
newpath
45610.1 74677.3 moveto
45313 74380.3 lineto
stroke
newpath
54366.7 74111.5 moveto
54663.8 73814.4 lineto
stroke
newpath
54663.8 74111.5 moveto
54366.7 73814.4 lineto
stroke
32186.9 69918.8 222.778 cir0
33672.1 69918.8 222.778 cir0
42872.9 75369.4 222.778 cir0
43385.2 67861.8 222.778 cir0
44358 75369.4 222.778 cir0
44870.4 67861.8 222.778 cir0
45731.8 64185.9 222.778 cir0
47172.5 74218.4 222.778 cir0
47172.5 72733.2 222.778 cir0
47217 64185.9 222.778 cir0
newpath
51969.6 65374.1 moveto
51969.6 64780 lineto
stroke
newpath
51672.6 65077.1 moveto
52266.7 65077.1 lineto
stroke
newpath
51969.6 63487.9 moveto
51969.6 62893.8 lineto
stroke
newpath
51672.6 63190.9 moveto
52266.7 63190.9 lineto
stroke
newpath
52021.6 69228.2 moveto
52021.6 68634.1 lineto
stroke
newpath
51724.6 68931.1 moveto
52318.7 68931.1 lineto
stroke
newpath
52021.6 67342 moveto
52021.6 66747.9 lineto
stroke
newpath
51724.6 67044.9 moveto
52318.7 67044.9 lineto
stroke
newpath
54271.7 65359.2 moveto
54271.7 64765.2 lineto
stroke
newpath
53974.6 65062.2 moveto
54568.7 65062.2 lineto
stroke
newpath
54271.7 63473.1 moveto
54271.7 62879 lineto
stroke
newpath
53974.6 63176 moveto
54568.7 63176 lineto
stroke
newpath
56581.2 65374.1 moveto
56581.2 64780 lineto
stroke
newpath
56284.1 65077.1 moveto
56878.2 65077.1 lineto
stroke
newpath
56581.2 63487.9 moveto
56581.2 62893.8 lineto
stroke
newpath
56284.1 63190.9 moveto
56878.2 63190.9 lineto
stroke
newpath
58831.2 65381.5 moveto
58831.2 64787.4 lineto
stroke
newpath
58534.2 65084.5 moveto
59128.3 65084.5 lineto
stroke
newpath
58831.2 63495.3 moveto
58831.2 62901.3 lineto
stroke
newpath
58534.2 63198.3 moveto
59128.3 63198.3 lineto
stroke
newpath
69376.1 60309.6 moveto
69376.1 59715.5 lineto
stroke
newpath
69079 60012.6 moveto
69673.1 60012.6 lineto
stroke
newpath
31662.3 53452.8 moveto
31662.3 53977.9 lineto
31137.2 53977.9 lineto
31137.2 53452.8 lineto
31662.3 53452.8 lineto
poly0
newpath
31662.3 51566.6 moveto
31662.3 52091.7 lineto
31137.2 52091.7 lineto
31137.2 51566.6 lineto
31662.3 51566.6 lineto
poly0
newpath
32412.3 74000.4 moveto
32412.3 74525.5 lineto
31887.2 74525.5 lineto
31887.2 74000.4 lineto
32412.3 74000.4 lineto
poly0
newpath
32427.2 65898.7 moveto
32427.2 66423.8 lineto
31902.1 66423.8 lineto
31902.1 65898.7 lineto
32427.2 65898.7 lineto
poly0
newpath
34298.5 74000.4 moveto
34298.5 74525.5 lineto
33773.4 74525.5 lineto
33773.4 74000.4 lineto
34298.5 74000.4 lineto
poly0
newpath
34313.4 65898.7 moveto
34313.4 66423.8 lineto
33788.3 66423.8 lineto
33788.3 65898.7 lineto
34313.4 65898.7 lineto
poly0
newpath
36184.7 74000.4 moveto
36184.7 74525.5 lineto
35659.6 74525.5 lineto
35659.6 74000.4 lineto
36184.7 74000.4 lineto
poly0
newpath
36199.6 65898.7 moveto
36199.6 66423.8 lineto
35674.5 66423.8 lineto
35674.5 65898.7 lineto
36199.6 65898.7 lineto
poly0
newpath
38070.9 74000.4 moveto
38070.9 74525.5 lineto
37545.8 74525.5 lineto
37545.8 74000.4 lineto
38070.9 74000.4 lineto
poly0
newpath
38085.8 65898.7 moveto
38085.8 66423.8 lineto
37560.7 66423.8 lineto
37560.7 65898.7 lineto
38085.8 65898.7 lineto
poly0
newpath
50776.7 59750 moveto
50776.7 60275.1 lineto
50251.6 60275.1 lineto
50251.6 59750 lineto
50776.7 59750 lineto
poly0
newpath
50776.7 48432.9 moveto
50776.7 48958 lineto
50251.6 48958 lineto
50251.6 48432.9 lineto
50776.7 48432.9 lineto
poly0
newpath
52662.9 59750 moveto
52662.9 60275.1 lineto
52137.8 60275.1 lineto
52137.8 59750 lineto
52662.9 59750 lineto
poly0
newpath
52662.9 48432.9 moveto
52662.9 48958 lineto
52137.8 48958 lineto
52137.8 48432.9 lineto
52662.9 48432.9 lineto
poly0
newpath
54549.1 59750 moveto
54549.1 60275.1 lineto
54024 60275.1 lineto
54024 59750 lineto
54549.1 59750 lineto
poly0
newpath
54549.1 48432.9 moveto
54549.1 48958 lineto
54024 48958 lineto
54024 48432.9 lineto
54549.1 48432.9 lineto
poly0
newpath
56435.3 59750 moveto
56435.3 60275.1 lineto
55910.2 60275.1 lineto
55910.2 59750 lineto
56435.3 59750 lineto
poly0
newpath
56435.3 48432.9 moveto
56435.3 48958 lineto
55910.2 48958 lineto
55910.2 48432.9 lineto
56435.3 48432.9 lineto
poly0
newpath
58321.5 59750 moveto
58321.5 60275.1 lineto
57796.4 60275.1 lineto
57796.4 59750 lineto
58321.5 59750 lineto
poly0
newpath
58321.5 48432.9 moveto
58321.5 48958 lineto
57796.4 48958 lineto
57796.4 48432.9 lineto
58321.5 48432.9 lineto
poly0
newpath
60207.7 59750 moveto
60207.7 60275.1 lineto
59682.6 60275.1 lineto
59682.6 59750 lineto
60207.7 59750 lineto
poly0
newpath
60207.7 48432.9 moveto
60207.7 48958 lineto
59682.6 48958 lineto
59682.6 48432.9 lineto
60207.7 48432.9 lineto
poly0
newpath
62093.8 59750 moveto
62093.8 60275.1 lineto
61568.7 60275.1 lineto
61568.7 59750 lineto
62093.8 59750 lineto
poly0
newpath
62093.8 48432.9 moveto
62093.8 48958 lineto
61568.7 48958 lineto
61568.7 48432.9 lineto
62093.8 48432.9 lineto
poly0
newpath
63980 59750 moveto
63980 60275.1 lineto
63454.9 60275.1 lineto
63454.9 59750 lineto
63980 59750 lineto
poly0
newpath
63980 48432.9 moveto
63980 48958 lineto
63454.9 48958 lineto
63454.9 48432.9 lineto
63980 48432.9 lineto
poly0
newpath
65866.2 59750 moveto
65866.2 60275.1 lineto
65341.1 60275.1 lineto
65341.1 59750 lineto
65866.2 59750 lineto
poly0
newpath
65866.2 48432.9 moveto
65866.2 48958 lineto
65341.1 48958 lineto
65341.1 48432.9 lineto
65866.2 48432.9 lineto
poly0
newpath
67752.4 59750 moveto
67752.4 60275.1 lineto
67227.3 60275.1 lineto
67227.3 59750 lineto
67752.4 59750 lineto
poly0
newpath
67752.4 48432.9 moveto
67752.4 48958 lineto
67227.3 48958 lineto
67227.3 48432.9 lineto
67752.4 48432.9 lineto
poly0
newpath
69638.6 48432.9 moveto
69638.6 48958 lineto
69113.5 48958 lineto
69113.5 48432.9 lineto
69638.6 48432.9 lineto
poly0
newpath
70299.5 62230.3 moveto
70299.5 62755.4 lineto
69774.4 62755.4 lineto
69774.4 62230.3 lineto
70299.5 62230.3 lineto
poly0
newpath
71183.2 67621.5 moveto
71183.2 68146.6 lineto
70658.1 68146.6 lineto
70658.1 67621.5 lineto
71183.2 67621.5 lineto
poly0
newpath
71524.8 59750 moveto
71524.8 60275.1 lineto
70999.7 60275.1 lineto
70999.7 59750 lineto
71524.8 59750 lineto
poly0
newpath
71524.8 48432.9 moveto
71524.8 48958 lineto
70999.7 48958 lineto
70999.7 48432.9 lineto
71524.8 48432.9 lineto
poly0
newpath
72185.7 62230.3 moveto
72185.7 62755.4 lineto
71660.6 62755.4 lineto
71660.6 62230.3 lineto
72185.7 62230.3 lineto
poly0
newpath
73069.4 67621.5 moveto
73069.4 68146.6 lineto
72544.3 68146.6 lineto
72544.3 67621.5 lineto
73069.4 67621.5 lineto
poly0
newpath
73411 59750 moveto
73411 60275.1 lineto
72885.9 60275.1 lineto
72885.9 59750 lineto
73411 59750 lineto
poly0
newpath
73411 48432.9 moveto
73411 48958 lineto
72885.9 48958 lineto
72885.9 48432.9 lineto
73411 48432.9 lineto
poly0
newpath
74071.9 62230.3 moveto
74071.9 62755.4 lineto
73546.8 62755.4 lineto
73546.8 62230.3 lineto
74071.9 62230.3 lineto
poly0
newpath
74955.6 67621.5 moveto
74955.6 68146.6 lineto
74430.5 68146.6 lineto
74430.5 67621.5 lineto
74955.6 67621.5 lineto
poly0
newpath
75297.2 59750 moveto
75297.2 60275.1 lineto
74772.1 60275.1 lineto
74772.1 59750 lineto
75297.2 59750 lineto
poly0
newpath
75297.2 48432.9 moveto
75297.2 48958 lineto
74772.1 48958 lineto
74772.1 48432.9 lineto
75297.2 48432.9 lineto
poly0
newpath
75958.1 62230.3 moveto
75958.1 62755.4 lineto
75433 62755.4 lineto
75433 62230.3 lineto
75958.1 62230.3 lineto
poly0
newpath
76841.8 67621.5 moveto
76841.8 68146.6 lineto
76316.7 68146.6 lineto
76316.7 67621.5 lineto
76841.8 67621.5 lineto
poly0
newpath
77183.4 59750 moveto
77183.4 60275.1 lineto
76658.3 60275.1 lineto
76658.3 59750 lineto
77183.4 59750 lineto
poly0
newpath
77183.4 48432.9 moveto
77183.4 48958 lineto
76658.3 48958 lineto
76658.3 48432.9 lineto
77183.4 48432.9 lineto
poly0
newpath
84245.5 61272.3 moveto
84245.5 61797.4 lineto
83720.4 61797.4 lineto
83720.4 61272.3 lineto
84245.5 61272.3 lineto
poly0
newpath
84245.5 59386.1 moveto
84245.5 59911.2 lineto
83720.4 59911.2 lineto
83720.4 59386.1 lineto
84245.5 59386.1 lineto
poly0
newpath
84245.5 57500 moveto
84245.5 58025 lineto
83720.4 58025 lineto
83720.4 57500 lineto
84245.5 57500 lineto
poly0
newpath
84245.5 55613.8 moveto
84245.5 56138.9 lineto
83720.4 56138.9 lineto
83720.4 55613.8 lineto
84245.5 55613.8 lineto
poly0
118.11 setlinewidth
0 0 0 setrgbcolor
0 0 0 setrgbcolor
newpath
29959 35175.5 moveto
29959 36356.6 lineto
30240.2 36356.6 lineto
30408.9 36300.3 lineto
30521.4 36187.9 lineto
30577.7 36075.4 lineto
30633.9 35850.4 lineto
30633.9 35681.7 lineto
30577.7 35456.7 lineto
30521.4 35344.2 lineto
30408.9 35231.7 lineto
30240.2 35175.5 lineto
29959 35175.5 lineto
stroke
newpath
31140.1 35175.5 moveto
31140.1 35962.9 lineto
stroke
newpath
31140.1 35737.9 moveto
31196.3 35850.4 lineto
31252.6 35906.6 lineto
31365.1 35962.9 lineto
31477.5 35962.9 lineto
stroke
newpath
31871.3 35175.5 moveto
31871.3 35962.9 lineto
stroke
newpath
31871.3 36356.6 moveto
31815 36300.3 lineto
31871.3 36244.1 lineto
31927.5 36300.3 lineto
31871.3 36356.6 lineto
31871.3 36244.1 lineto
stroke
newpath
32602.4 35175.5 moveto
32489.9 35231.7 lineto
32433.7 35344.2 lineto
32433.7 36356.6 lineto
stroke
newpath
33221.1 35175.5 moveto
33108.6 35231.7 lineto
33052.4 35344.2 lineto
33052.4 36356.6 lineto
stroke
newpath
34570.9 35175.5 moveto
34570.9 36356.6 lineto
34964.6 35512.9 lineto
35358.3 36356.6 lineto
35358.3 35175.5 lineto
stroke
newpath
36426.9 35175.5 moveto
36426.9 35794.2 lineto
36370.7 35906.6 lineto
36258.2 35962.9 lineto
36033.2 35962.9 lineto
35920.7 35906.6 lineto
stroke
newpath
36426.9 35231.7 moveto
36314.4 35175.5 lineto
36033.2 35175.5 lineto
35920.7 35231.7 lineto
35864.5 35344.2 lineto
35864.5 35456.7 lineto
35920.7 35569.2 lineto
36033.2 35625.4 lineto
36314.4 35625.4 lineto
36426.9 35681.7 lineto
stroke
newpath
36989.4 35962.9 moveto
36989.4 34781.8 lineto
stroke
newpath
36989.4 35906.6 moveto
37101.8 35962.9 lineto
37326.8 35962.9 lineto
37439.3 35906.6 lineto
37495.5 35850.4 lineto
37551.8 35737.9 lineto
37551.8 35400.5 lineto
37495.5 35288 lineto
37439.3 35231.7 lineto
37326.8 35175.5 lineto
37101.8 35175.5 lineto
36989.4 35231.7 lineto
stroke
newpath
38058 35288 moveto
38114.2 35231.7 lineto
38058 35175.5 lineto
38001.7 35231.7 lineto
38058 35288 lineto
38058 35175.5 lineto
stroke
newpath
38058 35906.6 moveto
38114.2 35850.4 lineto
38058 35794.2 lineto
38001.7 35850.4 lineto
38058 35906.6 lineto
38058 35794.2 lineto
stroke
newpath
28534.3 33378 moveto
28831.3 33081 lineto
stroke
newpath
28831.3 33378 moveto
28534.3 33081 lineto
stroke
0 0 0 setrgbcolor
0 0 0 setrgbcolor
newpath
30184 33876.3 moveto
30296.4 33876.3 lineto
30408.9 33820 lineto
30465.2 33763.8 lineto
30521.4 33651.3 lineto
30577.7 33426.3 lineto
30577.7 33145.1 lineto
30521.4 32920.1 lineto
30465.2 32807.7 lineto
30408.9 32751.4 lineto
30296.4 32695.2 lineto
30184 32695.2 lineto
30071.5 32751.4 lineto
30015.2 32807.7 lineto
29959 32920.1 lineto
29902.7 33145.1 lineto
29902.7 33426.3 lineto
29959 33651.3 lineto
30015.2 33763.8 lineto
30071.5 33820 lineto
30184 33876.3 lineto
stroke
newpath
31083.8 32807.7 moveto
31140.1 32751.4 lineto
31083.8 32695.2 lineto
31027.6 32751.4 lineto
31083.8 32807.7 lineto
31083.8 32695.2 lineto
stroke
newpath
32152.5 33482.6 moveto
32152.5 32695.2 lineto
stroke
newpath
31871.3 33932.5 moveto
31590 33088.9 lineto
32321.2 33088.9 lineto
stroke
newpath
32996.1 33876.3 moveto
33108.6 33876.3 lineto
33221.1 33820 lineto
33277.3 33763.8 lineto
33333.6 33651.3 lineto
33389.8 33426.3 lineto
33389.8 33145.1 lineto
33333.6 32920.1 lineto
33277.3 32807.7 lineto
33221.1 32751.4 lineto
33108.6 32695.2 lineto
32996.1 32695.2 lineto
32883.6 32751.4 lineto
32827.4 32807.7 lineto
32771.1 32920.1 lineto
32714.9 33145.1 lineto
32714.9 33426.3 lineto
32771.1 33651.3 lineto
32827.4 33763.8 lineto
32883.6 33820 lineto
32996.1 33876.3 lineto
stroke
newpath
33896 32695.2 moveto
33896 33482.6 lineto
stroke
newpath
33896 33370.1 moveto
33952.2 33426.3 lineto
34064.7 33482.6 lineto
34233.5 33482.6 lineto
34345.9 33426.3 lineto
34402.2 33313.8 lineto
34402.2 32695.2 lineto
stroke
newpath
34402.2 33313.8 moveto
34458.4 33426.3 lineto
34570.9 33482.6 lineto
34739.6 33482.6 lineto
34852.1 33426.3 lineto
34908.4 33313.8 lineto
34908.4 32695.2 lineto
stroke
newpath
35470.8 32695.2 moveto
35470.8 33482.6 lineto
stroke
newpath
35470.8 33370.1 moveto
35527 33426.3 lineto
35639.5 33482.6 lineto
35808.3 33482.6 lineto
35920.7 33426.3 lineto
35977 33313.8 lineto
35977 32695.2 lineto
stroke
newpath
35977 33313.8 moveto
36033.2 33426.3 lineto
36145.7 33482.6 lineto
36314.4 33482.6 lineto
36426.9 33426.3 lineto
36483.2 33313.8 lineto
36483.2 32695.2 lineto
stroke
newpath
38789.1 33932.5 moveto
37776.8 32414 lineto
stroke
newpath
40307.7 33876.3 moveto
40420.2 33876.3 lineto
40532.7 33820 lineto
40588.9 33763.8 lineto
40645.2 33651.3 lineto
40701.4 33426.3 lineto
40701.4 33145.1 lineto
40645.2 32920.1 lineto
40588.9 32807.7 lineto
40532.7 32751.4 lineto
40420.2 32695.2 lineto
40307.7 32695.2 lineto
40195.2 32751.4 lineto
40139 32807.7 lineto
40082.7 32920.1 lineto
40026.5 33145.1 lineto
40026.5 33426.3 lineto
40082.7 33651.3 lineto
40139 33763.8 lineto
40195.2 33820 lineto
40307.7 33876.3 lineto
stroke
newpath
41207.6 32807.7 moveto
41263.8 32751.4 lineto
41207.6 32695.2 lineto
41151.3 32751.4 lineto
41207.6 32807.7 lineto
41207.6 32695.2 lineto
stroke
newpath
41995 33876.3 moveto
42107.5 33876.3 lineto
42220 33820 lineto
42276.2 33763.8 lineto
42332.4 33651.3 lineto
42388.7 33426.3 lineto
42388.7 33145.1 lineto
42332.4 32920.1 lineto
42276.2 32807.7 lineto
42220 32751.4 lineto
42107.5 32695.2 lineto
41995 32695.2 lineto
41882.5 32751.4 lineto
41826.3 32807.7 lineto
41770 32920.1 lineto
41713.8 33145.1 lineto
41713.8 33426.3 lineto
41770 33651.3 lineto
41826.3 33763.8 lineto
41882.5 33820 lineto
41995 33876.3 lineto
stroke
newpath
43513.5 32695.2 moveto
42838.6 32695.2 lineto
stroke
newpath
43176.1 32695.2 moveto
43176.1 33876.3 lineto
43063.6 33707.5 lineto
42951.1 33595.1 lineto
42838.6 33538.8 lineto
stroke
newpath
44525.9 33876.3 moveto
44300.9 33876.3 lineto
44188.5 33820 lineto
44132.2 33763.8 lineto
44019.7 33595.1 lineto
43963.5 33370.1 lineto
43963.5 32920.1 lineto
44019.7 32807.7 lineto
44076 32751.4 lineto
44188.5 32695.2 lineto
44413.4 32695.2 lineto
44525.9 32751.4 lineto
44582.2 32807.7 lineto
44638.4 32920.1 lineto
44638.4 33201.4 lineto
44582.2 33313.8 lineto
44525.9 33370.1 lineto
44413.4 33426.3 lineto
44188.5 33426.3 lineto
44076 33370.1 lineto
44019.7 33313.8 lineto
43963.5 33201.4 lineto
stroke
newpath
45088.3 33876.3 moveto
45088.3 33651.3 lineto
stroke
newpath
45538.3 33876.3 moveto
45538.3 33651.3 lineto
stroke
newpath
47281.8 32245.2 moveto
47225.6 32301.5 lineto
47113.1 32470.2 lineto
47056.9 32582.7 lineto
47000.6 32751.4 lineto
46944.4 33032.6 lineto
46944.4 33257.6 lineto
47000.6 33538.8 lineto
47056.9 33707.5 lineto
47113.1 33820 lineto
47225.6 33988.8 lineto
47281.8 34045 lineto
stroke
newpath
47619.3 33876.3 moveto
48350.4 33876.3 lineto
47956.7 33426.3 lineto
48125.5 33426.3 lineto
48238 33370.1 lineto
48294.2 33313.8 lineto
48350.4 33201.4 lineto
48350.4 32920.1 lineto
48294.2 32807.7 lineto
48238 32751.4 lineto
48125.5 32695.2 lineto
47788 32695.2 lineto
47675.5 32751.4 lineto
47619.3 32807.7 lineto
stroke
newpath
49756.5 32695.2 moveto
49756.5 33876.3 lineto
stroke
newpath
50262.7 32695.2 moveto
50262.7 33313.8 lineto
50206.5 33426.3 lineto
50094 33482.6 lineto
49925.2 33482.6 lineto
49812.8 33426.3 lineto
49756.5 33370.1 lineto
stroke
newpath
50993.9 32695.2 moveto
50881.4 32751.4 lineto
50825.1 32807.7 lineto
50768.9 32920.1 lineto
50768.9 33257.6 lineto
50825.1 33370.1 lineto
50881.4 33426.3 lineto
50993.9 33482.6 lineto
51162.6 33482.6 lineto
51275.1 33426.3 lineto
51331.3 33370.1 lineto
51387.6 33257.6 lineto
51387.6 32920.1 lineto
51331.3 32807.7 lineto
51275.1 32751.4 lineto
51162.6 32695.2 lineto
50993.9 32695.2 lineto
stroke
newpath
52062.5 32695.2 moveto
51950 32751.4 lineto
51893.7 32863.9 lineto
51893.7 33876.3 lineto
stroke
newpath
52962.4 32751.4 moveto
52849.9 32695.2 lineto
52624.9 32695.2 lineto
52512.4 32751.4 lineto
52456.2 32863.9 lineto
52456.2 33313.8 lineto
52512.4 33426.3 lineto
52624.9 33482.6 lineto
52849.9 33482.6 lineto
52962.4 33426.3 lineto
53018.6 33313.8 lineto
53018.6 33201.4 lineto
52456.2 33088.9 lineto
stroke
newpath
53468.6 32751.4 moveto
53581 32695.2 lineto
53806 32695.2 lineto
53918.5 32751.4 lineto
53974.7 32863.9 lineto
53974.7 32920.1 lineto
53918.5 33032.6 lineto
53806 33088.9 lineto
53637.3 33088.9 lineto
53524.8 33145.1 lineto
53468.6 33257.6 lineto
53468.6 33313.8 lineto
53524.8 33426.3 lineto
53637.3 33482.6 lineto
53806 33482.6 lineto
53918.5 33426.3 lineto
stroke
newpath
54368.4 32245.2 moveto
54424.7 32301.5 lineto
54537.2 32470.2 lineto
54593.4 32582.7 lineto
54649.7 32751.4 lineto
54705.9 33032.6 lineto
54705.9 33257.6 lineto
54649.7 33538.8 lineto
54593.4 33707.5 lineto
54537.2 33820 lineto
54424.7 33988.8 lineto
54368.4 34045 lineto
stroke
28608.5 31670.4 222.778 cir0
0 0 0 setrgbcolor
0 0 0 setrgbcolor
newpath
30184 32317.2 moveto
30296.4 32317.2 lineto
30408.9 32261 lineto
30465.2 32204.7 lineto
30521.4 32092.2 lineto
30577.7 31867.3 lineto
30577.7 31586.1 lineto
30521.4 31361.1 lineto
30465.2 31248.6 lineto
30408.9 31192.4 lineto
30296.4 31136.1 lineto
30184 31136.1 lineto
30071.5 31192.4 lineto
30015.2 31248.6 lineto
29959 31361.1 lineto
29902.7 31586.1 lineto
29902.7 31867.3 lineto
29959 32092.2 lineto
30015.2 32204.7 lineto
30071.5 32261 lineto
30184 32317.2 lineto
stroke
newpath
31083.8 31248.6 moveto
31140.1 31192.4 lineto
31083.8 31136.1 lineto
31027.6 31192.4 lineto
31083.8 31248.6 lineto
31083.8 31136.1 lineto
stroke
newpath
32152.5 32317.2 moveto
31927.5 32317.2 lineto
31815 32261 lineto
31758.8 32204.7 lineto
31646.3 32036 lineto
31590 31811 lineto
31590 31361.1 lineto
31646.3 31248.6 lineto
31702.5 31192.4 lineto
31815 31136.1 lineto
32040 31136.1 lineto
32152.5 31192.4 lineto
32208.7 31248.6 lineto
32265 31361.1 lineto
32265 31642.3 lineto
32208.7 31754.8 lineto
32152.5 31811 lineto
32040 31867.3 lineto
31815 31867.3 lineto
31702.5 31811 lineto
31646.3 31754.8 lineto
31590 31642.3 lineto
stroke
newpath
32996.1 32317.2 moveto
33108.6 32317.2 lineto
33221.1 32261 lineto
33277.3 32204.7 lineto
33333.6 32092.2 lineto
33389.8 31867.3 lineto
33389.8 31586.1 lineto
33333.6 31361.1 lineto
33277.3 31248.6 lineto
33221.1 31192.4 lineto
33108.6 31136.1 lineto
32996.1 31136.1 lineto
32883.6 31192.4 lineto
32827.4 31248.6 lineto
32771.1 31361.1 lineto
32714.9 31586.1 lineto
32714.9 31867.3 lineto
32771.1 32092.2 lineto
32827.4 32204.7 lineto
32883.6 32261 lineto
32996.1 32317.2 lineto
stroke
newpath
33896 31136.1 moveto
33896 31923.5 lineto
stroke
newpath
33896 31811 moveto
33952.2 31867.3 lineto
34064.7 31923.5 lineto
34233.5 31923.5 lineto
34345.9 31867.3 lineto
34402.2 31754.8 lineto
34402.2 31136.1 lineto
stroke
newpath
34402.2 31754.8 moveto
34458.4 31867.3 lineto
34570.9 31923.5 lineto
34739.6 31923.5 lineto
34852.1 31867.3 lineto
34908.4 31754.8 lineto
34908.4 31136.1 lineto
stroke
newpath
35470.8 31136.1 moveto
35470.8 31923.5 lineto
stroke
newpath
35470.8 31811 moveto
35527 31867.3 lineto
35639.5 31923.5 lineto
35808.3 31923.5 lineto
35920.7 31867.3 lineto
35977 31754.8 lineto
35977 31136.1 lineto
stroke
newpath
35977 31754.8 moveto
36033.2 31867.3 lineto
36145.7 31923.5 lineto
36314.4 31923.5 lineto
36426.9 31867.3 lineto
36483.2 31754.8 lineto
36483.2 31136.1 lineto
stroke
newpath
38789.1 32373.5 moveto
37776.8 30854.9 lineto
stroke
newpath
40307.7 32317.2 moveto
40420.2 32317.2 lineto
40532.7 32261 lineto
40588.9 32204.7 lineto
40645.2 32092.2 lineto
40701.4 31867.3 lineto
40701.4 31586.1 lineto
40645.2 31361.1 lineto
40588.9 31248.6 lineto
40532.7 31192.4 lineto
40420.2 31136.1 lineto
40307.7 31136.1 lineto
40195.2 31192.4 lineto
40139 31248.6 lineto
40082.7 31361.1 lineto
40026.5 31586.1 lineto
40026.5 31867.3 lineto
40082.7 32092.2 lineto
40139 32204.7 lineto
40195.2 32261 lineto
40307.7 32317.2 lineto
stroke
newpath
41207.6 31248.6 moveto
41263.8 31192.4 lineto
41207.6 31136.1 lineto
41151.3 31192.4 lineto
41207.6 31248.6 lineto
41207.6 31136.1 lineto
stroke
newpath
41995 32317.2 moveto
42107.5 32317.2 lineto
42220 32261 lineto
42276.2 32204.7 lineto
42332.4 32092.2 lineto
42388.7 31867.3 lineto
42388.7 31586.1 lineto
42332.4 31361.1 lineto
42276.2 31248.6 lineto
42220 31192.4 lineto
42107.5 31136.1 lineto
41995 31136.1 lineto
41882.5 31192.4 lineto
41826.3 31248.6 lineto
41770 31361.1 lineto
41713.8 31586.1 lineto
41713.8 31867.3 lineto
41770 32092.2 lineto
41826.3 32204.7 lineto
41882.5 32261 lineto
41995 32317.2 lineto
stroke
newpath
42838.6 32204.7 moveto
42894.9 32261 lineto
43007.4 32317.2 lineto
43288.6 32317.2 lineto
43401.1 32261 lineto
43457.3 32204.7 lineto
43513.5 32092.2 lineto
43513.5 31979.8 lineto
43457.3 31811 lineto
42782.4 31136.1 lineto
43513.5 31136.1 lineto
stroke
newpath
44525.9 31923.5 moveto
44525.9 31136.1 lineto
stroke
newpath
44244.7 32373.5 moveto
43963.5 31529.8 lineto
44694.6 31529.8 lineto
stroke
newpath
45088.3 32317.2 moveto
45088.3 32092.2 lineto
stroke
newpath
45538.3 32317.2 moveto
45538.3 32092.2 lineto
stroke
newpath
47281.8 30686.2 moveto
47225.6 30742.4 lineto
47113.1 30911.1 lineto
47056.9 31023.6 lineto
47000.6 31192.4 lineto
46944.4 31473.6 lineto
46944.4 31698.5 lineto
47000.6 31979.8 lineto
47056.9 32148.5 lineto
47113.1 32261 lineto
47225.6 32429.7 lineto
47281.8 32485.9 lineto
stroke
newpath
48350.4 31136.1 moveto
47675.5 31136.1 lineto
stroke
newpath
48013 31136.1 moveto
48013 32317.2 lineto
47900.5 32148.5 lineto
47788 32036 lineto
47675.5 31979.8 lineto
stroke
newpath
49081.6 32317.2 moveto
49194.1 32317.2 lineto
49306.6 32261 lineto
49362.8 32204.7 lineto
49419.1 32092.2 lineto
49475.3 31867.3 lineto
49475.3 31586.1 lineto
49419.1 31361.1 lineto
49362.8 31248.6 lineto
49306.6 31192.4 lineto
49194.1 31136.1 lineto
49081.6 31136.1 lineto
48969.1 31192.4 lineto
48912.9 31248.6 lineto
48856.6 31361.1 lineto
48800.4 31586.1 lineto
48800.4 31867.3 lineto
48856.6 32092.2 lineto
48912.9 32204.7 lineto
48969.1 32261 lineto
49081.6 32317.2 lineto
stroke
newpath
50881.4 31136.1 moveto
50881.4 32317.2 lineto
stroke
newpath
51387.6 31136.1 moveto
51387.6 31754.8 lineto
51331.3 31867.3 lineto
51218.8 31923.5 lineto
51050.1 31923.5 lineto
50937.6 31867.3 lineto
50881.4 31811 lineto
stroke
newpath
52118.7 31136.1 moveto
52006.2 31192.4 lineto
51950 31248.6 lineto
51893.7 31361.1 lineto
51893.7 31698.5 lineto
51950 31811 lineto
52006.2 31867.3 lineto
52118.7 31923.5 lineto
52287.4 31923.5 lineto
52399.9 31867.3 lineto
52456.2 31811 lineto
52512.4 31698.5 lineto
52512.4 31361.1 lineto
52456.2 31248.6 lineto
52399.9 31192.4 lineto
52287.4 31136.1 lineto
52118.7 31136.1 lineto
stroke
newpath
53187.3 31136.1 moveto
53074.9 31192.4 lineto
53018.6 31304.8 lineto
53018.6 32317.2 lineto
stroke
newpath
54087.2 31192.4 moveto
53974.7 31136.1 lineto
53749.8 31136.1 lineto
53637.3 31192.4 lineto
53581 31304.8 lineto
53581 31754.8 lineto
53637.3 31867.3 lineto
53749.8 31923.5 lineto
53974.7 31923.5 lineto
54087.2 31867.3 lineto
54143.5 31754.8 lineto
54143.5 31642.3 lineto
53581 31529.8 lineto
stroke
newpath
54593.4 31192.4 moveto
54705.9 31136.1 lineto
54930.9 31136.1 lineto
55043.4 31192.4 lineto
55099.6 31304.8 lineto
55099.6 31361.1 lineto
55043.4 31473.6 lineto
54930.9 31529.8 lineto
54762.1 31529.8 lineto
54649.7 31586.1 lineto
54593.4 31698.5 lineto
54593.4 31754.8 lineto
54649.7 31867.3 lineto
54762.1 31923.5 lineto
54930.9 31923.5 lineto
55043.4 31867.3 lineto
stroke
newpath
55493.3 30686.2 moveto
55549.5 30742.4 lineto
55662 30911.1 lineto
55718.3 31023.6 lineto
55774.5 31192.4 lineto
55830.8 31473.6 lineto
55830.8 31698.5 lineto
55774.5 31979.8 lineto
55718.3 32148.5 lineto
55662 32261 lineto
55549.5 32429.7 lineto
55493.3 32485.9 lineto
stroke
newpath
28534.3 30408.4 moveto
28534.3 29814.3 lineto
stroke
newpath
28237.2 30111.4 moveto
28831.3 30111.4 lineto
stroke
0 0 0 setrgbcolor
0 0 0 setrgbcolor
newpath
30184 30758.2 moveto
30296.4 30758.2 lineto
30408.9 30701.9 lineto
30465.2 30645.7 lineto
30521.4 30533.2 lineto
30577.7 30308.2 lineto
30577.7 30027 lineto
30521.4 29802 lineto
30465.2 29689.5 lineto
30408.9 29633.3 lineto
30296.4 29577.1 lineto
30184 29577.1 lineto
30071.5 29633.3 lineto
30015.2 29689.5 lineto
29959 29802 lineto
29902.7 30027 lineto
29902.7 30308.2 lineto
29959 30533.2 lineto
30015.2 30645.7 lineto
30071.5 30701.9 lineto
30184 30758.2 lineto
stroke
newpath
31083.8 29689.5 moveto
31140.1 29633.3 lineto
31083.8 29577.1 lineto
31027.6 29633.3 lineto
31083.8 29689.5 lineto
31083.8 29577.1 lineto
stroke
newpath
31815 30252 moveto
31702.5 30308.2 lineto
31646.3 30364.5 lineto
31590 30476.9 lineto
31590 30533.2 lineto
31646.3 30645.7 lineto
31702.5 30701.9 lineto
31815 30758.2 lineto
32040 30758.2 lineto
32152.5 30701.9 lineto
32208.7 30645.7 lineto
32265 30533.2 lineto
32265 30476.9 lineto
32208.7 30364.5 lineto
32152.5 30308.2 lineto
32040 30252 lineto
31815 30252 lineto
31702.5 30195.7 lineto
31646.3 30139.5 lineto
31590 30027 lineto
31590 29802 lineto
31646.3 29689.5 lineto
31702.5 29633.3 lineto
31815 29577.1 lineto
32040 29577.1 lineto
32152.5 29633.3 lineto
32208.7 29689.5 lineto
32265 29802 lineto
32265 30027 lineto
32208.7 30139.5 lineto
32152.5 30195.7 lineto
32040 30252 lineto
stroke
newpath
32996.1 30758.2 moveto
33108.6 30758.2 lineto
33221.1 30701.9 lineto
33277.3 30645.7 lineto
33333.6 30533.2 lineto
33389.8 30308.2 lineto
33389.8 30027 lineto
33333.6 29802 lineto
33277.3 29689.5 lineto
33221.1 29633.3 lineto
33108.6 29577.1 lineto
32996.1 29577.1 lineto
32883.6 29633.3 lineto
32827.4 29689.5 lineto
32771.1 29802 lineto
32714.9 30027 lineto
32714.9 30308.2 lineto
32771.1 30533.2 lineto
32827.4 30645.7 lineto
32883.6 30701.9 lineto
32996.1 30758.2 lineto
stroke
newpath
33896 29577.1 moveto
33896 30364.5 lineto
stroke
newpath
33896 30252 moveto
33952.2 30308.2 lineto
34064.7 30364.5 lineto
34233.5 30364.5 lineto
34345.9 30308.2 lineto
34402.2 30195.7 lineto
34402.2 29577.1 lineto
stroke
newpath
34402.2 30195.7 moveto
34458.4 30308.2 lineto
34570.9 30364.5 lineto
34739.6 30364.5 lineto
34852.1 30308.2 lineto
34908.4 30195.7 lineto
34908.4 29577.1 lineto
stroke
newpath
35470.8 29577.1 moveto
35470.8 30364.5 lineto
stroke
newpath
35470.8 30252 moveto
35527 30308.2 lineto
35639.5 30364.5 lineto
35808.3 30364.5 lineto
35920.7 30308.2 lineto
35977 30195.7 lineto
35977 29577.1 lineto
stroke
newpath
35977 30195.7 moveto
36033.2 30308.2 lineto
36145.7 30364.5 lineto
36314.4 30364.5 lineto
36426.9 30308.2 lineto
36483.2 30195.7 lineto
36483.2 29577.1 lineto
stroke
newpath
38789.1 30814.4 moveto
37776.8 29295.8 lineto
stroke
newpath
40307.7 30758.2 moveto
40420.2 30758.2 lineto
40532.7 30701.9 lineto
40588.9 30645.7 lineto
40645.2 30533.2 lineto
40701.4 30308.2 lineto
40701.4 30027 lineto
40645.2 29802 lineto
40588.9 29689.5 lineto
40532.7 29633.3 lineto
40420.2 29577.1 lineto
40307.7 29577.1 lineto
40195.2 29633.3 lineto
40139 29689.5 lineto
40082.7 29802 lineto
40026.5 30027 lineto
40026.5 30308.2 lineto
40082.7 30533.2 lineto
40139 30645.7 lineto
40195.2 30701.9 lineto
40307.7 30758.2 lineto
stroke
newpath
41207.6 29689.5 moveto
41263.8 29633.3 lineto
41207.6 29577.1 lineto
41151.3 29633.3 lineto
41207.6 29689.5 lineto
41207.6 29577.1 lineto
stroke
newpath
41995 30758.2 moveto
42107.5 30758.2 lineto
42220 30701.9 lineto
42276.2 30645.7 lineto
42332.4 30533.2 lineto
42388.7 30308.2 lineto
42388.7 30027 lineto
42332.4 29802 lineto
42276.2 29689.5 lineto
42220 29633.3 lineto
42107.5 29577.1 lineto
41995 29577.1 lineto
41882.5 29633.3 lineto
41826.3 29689.5 lineto
41770 29802 lineto
41713.8 30027 lineto
41713.8 30308.2 lineto
41770 30533.2 lineto
41826.3 30645.7 lineto
41882.5 30701.9 lineto
41995 30758.2 lineto
stroke
newpath
42782.4 30758.2 moveto
43513.5 30758.2 lineto
43119.8 30308.2 lineto
43288.6 30308.2 lineto
43401.1 30252 lineto
43457.3 30195.7 lineto
43513.5 30083.2 lineto
43513.5 29802 lineto
43457.3 29689.5 lineto
43401.1 29633.3 lineto
43288.6 29577.1 lineto
42951.1 29577.1 lineto
42838.6 29633.3 lineto
42782.4 29689.5 lineto
stroke
newpath
44638.4 29577.1 moveto
43963.5 29577.1 lineto
stroke
newpath
44300.9 29577.1 moveto
44300.9 30758.2 lineto
44188.5 30589.4 lineto
44076 30476.9 lineto
43963.5 30420.7 lineto
stroke
newpath
45088.3 30758.2 moveto
45088.3 30533.2 lineto
stroke
newpath
45538.3 30758.2 moveto
45538.3 30533.2 lineto
stroke
newpath
47281.8 29127.1 moveto
47225.6 29183.4 lineto
47113.1 29352.1 lineto
47056.9 29464.6 lineto
47000.6 29633.3 lineto
46944.4 29914.5 lineto
46944.4 30139.5 lineto
47000.6 30420.7 lineto
47056.9 30589.4 lineto
47113.1 30701.9 lineto
47225.6 30870.6 lineto
47281.8 30926.9 lineto
stroke
newpath
48350.4 29577.1 moveto
47675.5 29577.1 lineto
stroke
newpath
48013 29577.1 moveto
48013 30758.2 lineto
47900.5 30589.4 lineto
47788 30476.9 lineto
47675.5 30420.7 lineto
stroke
newpath
49475.3 29577.1 moveto
48800.4 29577.1 lineto
stroke
newpath
49137.8 29577.1 moveto
49137.8 30758.2 lineto
49025.4 30589.4 lineto
48912.9 30476.9 lineto
48800.4 30420.7 lineto
stroke
newpath
50881.4 29577.1 moveto
50881.4 30758.2 lineto
stroke
newpath
51387.6 29577.1 moveto
51387.6 30195.7 lineto
51331.3 30308.2 lineto
51218.8 30364.5 lineto
51050.1 30364.5 lineto
50937.6 30308.2 lineto
50881.4 30252 lineto
stroke
newpath
52118.7 29577.1 moveto
52006.2 29633.3 lineto
51950 29689.5 lineto
51893.7 29802 lineto
51893.7 30139.5 lineto
51950 30252 lineto
52006.2 30308.2 lineto
52118.7 30364.5 lineto
52287.4 30364.5 lineto
52399.9 30308.2 lineto
52456.2 30252 lineto
52512.4 30139.5 lineto
52512.4 29802 lineto
52456.2 29689.5 lineto
52399.9 29633.3 lineto
52287.4 29577.1 lineto
52118.7 29577.1 lineto
stroke
newpath
53187.3 29577.1 moveto
53074.9 29633.3 lineto
53018.6 29745.8 lineto
53018.6 30758.2 lineto
stroke
newpath
54087.2 29633.3 moveto
53974.7 29577.1 lineto
53749.8 29577.1 lineto
53637.3 29633.3 lineto
53581 29745.8 lineto
53581 30195.7 lineto
53637.3 30308.2 lineto
53749.8 30364.5 lineto
53974.7 30364.5 lineto
54087.2 30308.2 lineto
54143.5 30195.7 lineto
54143.5 30083.2 lineto
53581 29970.8 lineto
stroke
newpath
54593.4 29633.3 moveto
54705.9 29577.1 lineto
54930.9 29577.1 lineto
55043.4 29633.3 lineto
55099.6 29745.8 lineto
55099.6 29802 lineto
55043.4 29914.5 lineto
54930.9 29970.8 lineto
54762.1 29970.8 lineto
54649.7 30027 lineto
54593.4 30139.5 lineto
54593.4 30195.7 lineto
54649.7 30308.2 lineto
54762.1 30364.5 lineto
54930.9 30364.5 lineto
55043.4 30308.2 lineto
stroke
newpath
55493.3 29127.1 moveto
55549.5 29183.4 lineto
55662 29352.1 lineto
55718.3 29464.6 lineto
55774.5 29633.3 lineto
55830.8 29914.5 lineto
55830.8 30139.5 lineto
55774.5 30420.7 lineto
55718.3 30589.4 lineto
55662 30701.9 lineto
55549.5 30870.6 lineto
55493.3 30926.9 lineto
stroke
newpath
28722.6 28289.8 moveto
28722.6 28814.9 lineto
28197.5 28814.9 lineto
28197.5 28289.8 lineto
28722.6 28289.8 lineto
poly0
0 0 0 setrgbcolor
0 0 0 setrgbcolor
newpath
30577.7 28018 moveto
29902.7 28018 lineto
stroke
newpath
30240.2 28018 moveto
30240.2 29199.1 lineto
30127.7 29030.4 lineto
30015.2 28917.9 lineto
29902.7 28861.6 lineto
stroke
newpath
31083.8 28130.5 moveto
31140.1 28074.2 lineto
31083.8 28018 lineto
31027.6 28074.2 lineto
31083.8 28130.5 lineto
31083.8 28018 lineto
stroke
newpath
31871.3 29199.1 moveto
31983.7 29199.1 lineto
32096.2 29142.9 lineto
32152.5 29086.6 lineto
32208.7 28974.1 lineto
32265 28749.2 lineto
32265 28467.9 lineto
32208.7 28243 lineto
32152.5 28130.5 lineto
32096.2 28074.2 lineto
31983.7 28018 lineto
31871.3 28018 lineto
31758.8 28074.2 lineto
31702.5 28130.5 lineto
31646.3 28243 lineto
31590 28467.9 lineto
31590 28749.2 lineto
31646.3 28974.1 lineto
31702.5 29086.6 lineto
31758.8 29142.9 lineto
31871.3 29199.1 lineto
stroke
newpath
32996.1 29199.1 moveto
33108.6 29199.1 lineto
33221.1 29142.9 lineto
33277.3 29086.6 lineto
33333.6 28974.1 lineto
33389.8 28749.2 lineto
33389.8 28467.9 lineto
33333.6 28243 lineto
33277.3 28130.5 lineto
33221.1 28074.2 lineto
33108.6 28018 lineto
32996.1 28018 lineto
32883.6 28074.2 lineto
32827.4 28130.5 lineto
32771.1 28243 lineto
32714.9 28467.9 lineto
32714.9 28749.2 lineto
32771.1 28974.1 lineto
32827.4 29086.6 lineto
32883.6 29142.9 lineto
32996.1 29199.1 lineto
stroke
newpath
33896 28018 moveto
33896 28805.4 lineto
stroke
newpath
33896 28692.9 moveto
33952.2 28749.2 lineto
34064.7 28805.4 lineto
34233.5 28805.4 lineto
34345.9 28749.2 lineto
34402.2 28636.7 lineto
34402.2 28018 lineto
stroke
newpath
34402.2 28636.7 moveto
34458.4 28749.2 lineto
34570.9 28805.4 lineto
34739.6 28805.4 lineto
34852.1 28749.2 lineto
34908.4 28636.7 lineto
34908.4 28018 lineto
stroke
newpath
35470.8 28018 moveto
35470.8 28805.4 lineto
stroke
newpath
35470.8 28692.9 moveto
35527 28749.2 lineto
35639.5 28805.4 lineto
35808.3 28805.4 lineto
35920.7 28749.2 lineto
35977 28636.7 lineto
35977 28018 lineto
stroke
newpath
35977 28636.7 moveto
36033.2 28749.2 lineto
36145.7 28805.4 lineto
36314.4 28805.4 lineto
36426.9 28749.2 lineto
36483.2 28636.7 lineto
36483.2 28018 lineto
stroke
newpath
38789.1 29255.3 moveto
37776.8 27736.8 lineto
stroke
newpath
40307.7 29199.1 moveto
40420.2 29199.1 lineto
40532.7 29142.9 lineto
40588.9 29086.6 lineto
40645.2 28974.1 lineto
40701.4 28749.2 lineto
40701.4 28467.9 lineto
40645.2 28243 lineto
40588.9 28130.5 lineto
40532.7 28074.2 lineto
40420.2 28018 lineto
40307.7 28018 lineto
40195.2 28074.2 lineto
40139 28130.5 lineto
40082.7 28243 lineto
40026.5 28467.9 lineto
40026.5 28749.2 lineto
40082.7 28974.1 lineto
40139 29086.6 lineto
40195.2 29142.9 lineto
40307.7 29199.1 lineto
stroke
newpath
41207.6 28130.5 moveto
41263.8 28074.2 lineto
41207.6 28018 lineto
41151.3 28074.2 lineto
41207.6 28130.5 lineto
41207.6 28018 lineto
stroke
newpath
41995 29199.1 moveto
42107.5 29199.1 lineto
42220 29142.9 lineto
42276.2 29086.6 lineto
42332.4 28974.1 lineto
42388.7 28749.2 lineto
42388.7 28467.9 lineto
42332.4 28243 lineto
42276.2 28130.5 lineto
42220 28074.2 lineto
42107.5 28018 lineto
41995 28018 lineto
41882.5 28074.2 lineto
41826.3 28130.5 lineto
41770 28243 lineto
41713.8 28467.9 lineto
41713.8 28749.2 lineto
41770 28974.1 lineto
41826.3 29086.6 lineto
41882.5 29142.9 lineto
41995 29199.1 lineto
stroke
newpath
42782.4 29199.1 moveto
43513.5 29199.1 lineto
43119.8 28749.2 lineto
43288.6 28749.2 lineto
43401.1 28692.9 lineto
43457.3 28636.7 lineto
43513.5 28524.2 lineto
43513.5 28243 lineto
43457.3 28130.5 lineto
43401.1 28074.2 lineto
43288.6 28018 lineto
42951.1 28018 lineto
42838.6 28074.2 lineto
42782.4 28130.5 lineto
stroke
newpath
44076 28018 moveto
44300.9 28018 lineto
44413.4 28074.2 lineto
44469.7 28130.5 lineto
44582.2 28299.2 lineto
44638.4 28524.2 lineto
44638.4 28974.1 lineto
44582.2 29086.6 lineto
44525.9 29142.9 lineto
44413.4 29199.1 lineto
44188.5 29199.1 lineto
44076 29142.9 lineto
44019.7 29086.6 lineto
43963.5 28974.1 lineto
43963.5 28692.9 lineto
44019.7 28580.4 lineto
44076 28524.2 lineto
44188.5 28467.9 lineto
44413.4 28467.9 lineto
44525.9 28524.2 lineto
44582.2 28580.4 lineto
44638.4 28692.9 lineto
stroke
newpath
45088.3 29199.1 moveto
45088.3 28974.1 lineto
stroke
newpath
45538.3 29199.1 moveto
45538.3 28974.1 lineto
stroke
newpath
47281.8 27568.1 moveto
47225.6 27624.3 lineto
47113.1 27793 lineto
47056.9 27905.5 lineto
47000.6 28074.2 lineto
46944.4 28355.5 lineto
46944.4 28580.4 lineto
47000.6 28861.6 lineto
47056.9 29030.4 lineto
47113.1 29142.9 lineto
47225.6 29311.6 lineto
47281.8 29367.8 lineto
stroke
newpath
48294.2 29199.1 moveto
47731.8 29199.1 lineto
47675.5 28636.7 lineto
47731.8 28692.9 lineto
47844.3 28749.2 lineto
48125.5 28749.2 lineto
48238 28692.9 lineto
48294.2 28636.7 lineto
48350.4 28524.2 lineto
48350.4 28243 lineto
48294.2 28130.5 lineto
48238 28074.2 lineto
48125.5 28018 lineto
47844.3 28018 lineto
47731.8 28074.2 lineto
47675.5 28130.5 lineto
stroke
newpath
49475.3 28018 moveto
48800.4 28018 lineto
stroke
newpath
49137.8 28018 moveto
49137.8 29199.1 lineto
49025.4 29030.4 lineto
48912.9 28917.9 lineto
48800.4 28861.6 lineto
stroke
newpath
50881.4 28018 moveto
50881.4 29199.1 lineto
stroke
newpath
51387.6 28018 moveto
51387.6 28636.7 lineto
51331.3 28749.2 lineto
51218.8 28805.4 lineto
51050.1 28805.4 lineto
50937.6 28749.2 lineto
50881.4 28692.9 lineto
stroke
newpath
52118.7 28018 moveto
52006.2 28074.2 lineto
51950 28130.5 lineto
51893.7 28243 lineto
51893.7 28580.4 lineto
51950 28692.9 lineto
52006.2 28749.2 lineto
52118.7 28805.4 lineto
52287.4 28805.4 lineto
52399.9 28749.2 lineto
52456.2 28692.9 lineto
52512.4 28580.4 lineto
52512.4 28243 lineto
52456.2 28130.5 lineto
52399.9 28074.2 lineto
52287.4 28018 lineto
52118.7 28018 lineto
stroke
newpath
53187.3 28018 moveto
53074.9 28074.2 lineto
53018.6 28186.7 lineto
53018.6 29199.1 lineto
stroke
newpath
54087.2 28074.2 moveto
53974.7 28018 lineto
53749.8 28018 lineto
53637.3 28074.2 lineto
53581 28186.7 lineto
53581 28636.7 lineto
53637.3 28749.2 lineto
53749.8 28805.4 lineto
53974.7 28805.4 lineto
54087.2 28749.2 lineto
54143.5 28636.7 lineto
54143.5 28524.2 lineto
53581 28411.7 lineto
stroke
newpath
54593.4 28074.2 moveto
54705.9 28018 lineto
54930.9 28018 lineto
55043.4 28074.2 lineto
55099.6 28186.7 lineto
55099.6 28243 lineto
55043.4 28355.5 lineto
54930.9 28411.7 lineto
54762.1 28411.7 lineto
54649.7 28467.9 lineto
54593.4 28580.4 lineto
54593.4 28636.7 lineto
54649.7 28749.2 lineto
54762.1 28805.4 lineto
54930.9 28805.4 lineto
55043.4 28749.2 lineto
stroke
newpath
55493.3 27568.1 moveto
55549.5 27624.3 lineto
55662 27793 lineto
55718.3 27905.5 lineto
55774.5 28074.2 lineto
55830.8 28355.5 lineto
55830.8 28580.4 lineto
55774.5 28861.6 lineto
55718.3 29030.4 lineto
55662 29142.9 lineto
55549.5 29311.6 lineto
55493.3 29367.8 lineto
stroke
showpage
grestore
%%EOF
