%!PS-Adobe-3.0
%%Creator: PCBNEW
%%CreationDate: Sat Jun  5 18:31:28 2021
%%Title: /mnt/942da942-d554-4f2f-8d63-d271d7ef0f14/SeafileYuno/Seafile_Fablab/Projets/CrunchMakerCamp_2021/unimotion_crunchmakercamp_2021/kicad/unimotion_inside/gerber/unimotion_inside-NPTH-drl_map.ps
%%Pages: 1
%%PageOrder: Ascend
%%BoundingBox: 0 0 596 842
%%DocumentMedia: A4 595 842 0 () ()
%%Orientation: Landscape
%%EndComments
%%BeginProlog
/line { newpath moveto lineto stroke } bind def
/cir0 { newpath 0 360 arc stroke } bind def
/cir1 { newpath 0 360 arc gsave fill grestore stroke } bind def
/cir2 { newpath 0 360 arc gsave fill grestore stroke } bind def
/arc0 { newpath arc stroke } bind def
/arc1 { newpath 4 index 4 index moveto arc closepath gsave fill
    grestore stroke } bind def
/arc2 { newpath 4 index 4 index moveto arc closepath gsave fill
    grestore stroke } bind def
/poly0 { stroke } bind def
/poly1 { closepath gsave fill grestore stroke } bind def
/poly2 { closepath gsave fill grestore stroke } bind def
/rect0 { rectstroke } bind def
/rect1 { rectfill } bind def
/rect2 { rectfill } bind def
/linemode0 { 0 setlinecap 0 setlinejoin 0 setlinewidth } bind def
/linemode1 { 1 setlinecap 1 setlinejoin } bind def
/dashedline { [200] 100 setdash } bind def
/solidline { [] 0 setdash } bind def
/phantomshow { moveto
    /KicadFont findfont 0.000001 scalefont setfont
    show } bind def
/textshow { gsave
    findfont exch scalefont setfont concat 1 scale 0 0 moveto show
    } bind def
/reencodefont {
  findfont dup length dict begin
  { 1 index /FID ne
    { def }
    { pop pop } ifelse
  } forall
  /Encoding ISOLatin1Encoding def
  currentdict
  end } bind def
/KicadFont /Helvetica reencodefont definefont pop
/KicadFont-Bold /Helvetica-Bold reencodefont definefont pop
/KicadFont-Oblique /Helvetica-Oblique reencodefont definefont pop
/KicadFont-BoldOblique /Helvetica-BoldOblique reencodefont definefont pop
%%EndProlog
%%Page: 1 1
%%BeginPageSetup
gsave
0.0072 0.0072 scale
linemode1
82680 0 translate 90 rotate
94.3096 setlinewidth
%%EndPageSetup
78.7396 setlinewidth
118.11 setlinewidth
0 0 0 setrgbcolor
0 0 0 setrgbcolor
newpath
29959 35175.5 moveto
29959 36356.6 lineto
30240.2 36356.6 lineto
30408.9 36300.3 lineto
30521.4 36187.9 lineto
30577.7 36075.4 lineto
30633.9 35850.4 lineto
30633.9 35681.7 lineto
30577.7 35456.7 lineto
30521.4 35344.2 lineto
30408.9 35231.7 lineto
30240.2 35175.5 lineto
29959 35175.5 lineto
stroke
newpath
31140.1 35175.5 moveto
31140.1 35962.9 lineto
stroke
newpath
31140.1 35737.9 moveto
31196.3 35850.4 lineto
31252.6 35906.6 lineto
31365.1 35962.9 lineto
31477.5 35962.9 lineto
stroke
newpath
31871.3 35175.5 moveto
31871.3 35962.9 lineto
stroke
newpath
31871.3 36356.6 moveto
31815 36300.3 lineto
31871.3 36244.1 lineto
31927.5 36300.3 lineto
31871.3 36356.6 lineto
31871.3 36244.1 lineto
stroke
newpath
32602.4 35175.5 moveto
32489.9 35231.7 lineto
32433.7 35344.2 lineto
32433.7 36356.6 lineto
stroke
newpath
33221.1 35175.5 moveto
33108.6 35231.7 lineto
33052.4 35344.2 lineto
33052.4 36356.6 lineto
stroke
newpath
34570.9 35175.5 moveto
34570.9 36356.6 lineto
34964.6 35512.9 lineto
35358.3 36356.6 lineto
35358.3 35175.5 lineto
stroke
newpath
36426.9 35175.5 moveto
36426.9 35794.2 lineto
36370.7 35906.6 lineto
36258.2 35962.9 lineto
36033.2 35962.9 lineto
35920.7 35906.6 lineto
stroke
newpath
36426.9 35231.7 moveto
36314.4 35175.5 lineto
36033.2 35175.5 lineto
35920.7 35231.7 lineto
35864.5 35344.2 lineto
35864.5 35456.7 lineto
35920.7 35569.2 lineto
36033.2 35625.4 lineto
36314.4 35625.4 lineto
36426.9 35681.7 lineto
stroke
newpath
36989.4 35962.9 moveto
36989.4 34781.8 lineto
stroke
newpath
36989.4 35906.6 moveto
37101.8 35962.9 lineto
37326.8 35962.9 lineto
37439.3 35906.6 lineto
37495.5 35850.4 lineto
37551.8 35737.9 lineto
37551.8 35400.5 lineto
37495.5 35288 lineto
37439.3 35231.7 lineto
37326.8 35175.5 lineto
37101.8 35175.5 lineto
36989.4 35231.7 lineto
stroke
newpath
38058 35288 moveto
38114.2 35231.7 lineto
38058 35175.5 lineto
38001.7 35231.7 lineto
38058 35288 lineto
38058 35175.5 lineto
stroke
newpath
38058 35906.6 moveto
38114.2 35850.4 lineto
38058 35794.2 lineto
38001.7 35850.4 lineto
38058 35906.6 lineto
38058 35794.2 lineto
stroke
showpage
grestore
%%EOF
